{"todos": [
    {
      "id": 1,
      "todo": "todo1",
      "checked": false
    },
    {
        "id": 2,
        "todo": "todo2",
        "checked": false
      },
      {
        "id": 3,
        "todo": "todo3",
        "checked": false
      }
]
}